<?xml version="1.0" encoding="utf-8"?>
<!-- Generator: Adobe Illustrator 16.0.0, SVG Export Plug-In . SVG Version: 6.00 Build 0)  -->
<!DOCTYPE svg PUBLIC "-//W3C//DTD SVG 1.1//EN" "http://www.w3.org/Graphics/SVG/1.1/DTD/svg11.dtd">
<svg version="1.1" id="chevron" xmlns="http://www.w3.org/2000/svg" xmlns:xlink="http://www.w3.org/1999/xlink" x="0px" y="0px" viewBox="0 0 26.992 12.008" enable-background="new 0 0 26.992 12.008">
<polygon fill-rule="evenodd" clip-rule="evenodd" fill="#B3B3B3" points="0,0 13.495,6.497 26.992,0 26.992,5.511 13.495,12.008
	0,5.511 "/>
</svg>
